{
  "organizations":[
    "org-id-here"
  ],
  "region": "us-east-1",
  "env": "tca",
  "toggle_operate_on_queues": true,
  "toggle_operate_on_users": true,
  "toggle_operate_on_edges": false,
  "toggle_check_conversations": true,
  "toggle_delete_conversations": true,
  "toggle_delete_station_associations": true,
  "toggle_filter_queues": false,
  "toggle_filter_users": false,
  "queue_pattern": "Queue",
  "queue_range_minimum": 1,
  "queue_range_maximum": 1,
  "user_pattern": "User",
  "user_range_minimum": 0,
  "user_range_maximum": 500,
  "toggle_user_email_domain_override": false,
  "user_email_domain_override": "scaletestingorg.test",
  "store_unused_organizations_here":[
    "use this like a remark section to keep presently-unused org ids - must be valid json"
  ]
}