{
  "organizations":[
      "a87e93aa-b6fe-4200-bec3-5c4223035db3"
  ],
  "region": "us-east-1",
  "env": "tca",
  "phone_pattern": "Phone",
  "phone_range_minimum": 5001,
  "phone_range_maximum": 7002,
  "user_pattern": "SandboxUser",
  "user_range_minimum": 5001,
  "user_range_maximum": 7002,
  "toggle_user_email_domain_override": true,
  "user_email_domain_override": "gregsSandbox.test",
  "store_unused_organizations_here":[
      "{old org-ids or notes you want to keep}"
  ]
}